s
w
s
w
d
w
s
p
d
3
5
p
a
4
4
d
p
s
3
4
p
w
3
6
w
p
w
2
4
w
a
p
s
5
2
a
p
d
6
3
s
w
d
p
a
6
6
p
a
0
4
d
p
w
1
6
a
d
p
s
5
6
d
a
w
a
p
a
0
2
a
w
a
d
a
s
s
s
s
p
d
2
0
d
p
s
2
1
w
s
d
a
s
p
d
2
2
d
a
d
a
s
a
p
w
8
2
d
a
p
d
3
2
d
d
s
d
a
d
a
w
s
w
s
w
s
w
s